^C:\USERS\FS5VE\DOCUMENTS\VISUAL STUDIO 2015\PROJECTS\FACEDETECTIONENCLAVE\FACEDETECTIONENCLAVE\FACEDETECTIONENCLAVE.EDL
C:\USERS\FS5VE\DOCUMENTS\VISUAL STUDIO 2015\PROJECTS\FACEDETECTIONENCLAVE\FACEDETECTIONAPP\FACEDETECTIONENCLAVE_U.H
C:\USERS\FS5VE\DOCUMENTS\VISUAL STUDIO 2015\PROJECTS\FACEDETECTIONENCLAVE\FACEDETECTIONAPP\FACEDETECTIONENCLAVE_U.C
