^C:\USERS\FS5VE\DOCUMENTS\VISUAL STUDIO 2015\PROJECTS\FACEDETECTIONENCLAVE\FACEDETECTIONENCLAVE\FACEDETECTIONENCLAVE.CPP
C:\USERS\FS5VE\DOCUMENTS\VISUAL STUDIO 2015\PROJECTS\FACEDETECTIONENCLAVE\FACEDETECTIONENCLAVE\FACEDETECTIONENCLAVE_T.H
C:\PROGRAM FILES (X86)\INTEL\INTELSGXSDK\INCLUDE\TLIBC\STDINT.H
C:\PROGRAM FILES (X86)\INTEL\INTELSGXSDK\INCLUDE\TLIBC\SYS\STDINT.H
C:\PROGRAM FILES (X86)\INTEL\INTELSGXSDK\INCLUDE\TLIBC\SYS\CDEFS.H
C:\PROGRAM FILES (X86)\INTEL\INTELSGXSDK\INCLUDE\TLIBC\SYS\_TYPES.H
C:\PROGRAM FILES (X86)\INTEL\INTELSGXSDK\INCLUDE\TLIBC\WCHAR.H
C:\PROGRAM FILES (X86)\INTEL\INTELSGXSDK\INCLUDE\TLIBC\STDDEF.H
C:\PROGRAM FILES (X86)\INTEL\INTELSGXSDK\INCLUDE\SGX_EDGER8R.H
C:\PROGRAM FILES (X86)\INTEL\INTELSGXSDK\INCLUDE\SGX_DEFS.H
C:\PROGRAM FILES (X86)\INTEL\INTELSGXSDK\INCLUDE\SGX_ERROR.H
C:\PROGRAM FILES (X86)\INTEL\INTELSGXSDK\INCLUDE\SGX_EID.H
C:\USERS\FS5VE\DOCUMENTS\VISUAL STUDIO 2015\PROJECTS\FACEDETECTIONENCLAVE\FACEDETECTIONENCLAVE\FACEDETECTIONENCLAVE.H
C:\PROGRAM FILES (X86)\INTEL\INTELSGXSDK\INCLUDE\TLIBC\STDLIB.H
C:\PROGRAM FILES (X86)\INTEL\INTELSGXSDK\INCLUDE\TLIBC\ASSERT.H
^C:\USERS\FS5VE\DOCUMENTS\VISUAL STUDIO 2015\PROJECTS\FACEDETECTIONENCLAVE\FACEDETECTIONENCLAVE\SEALING\SEALING.CPP
C:\PROGRAM FILES (X86)\INTEL\INTELSGXSDK\INCLUDE\SGX_TRTS.H
C:\PROGRAM FILES (X86)\INTEL\INTELSGXSDK\INCLUDE\SGX_ERROR.H
C:\PROGRAM FILES (X86)\INTEL\INTELSGXSDK\INCLUDE\TLIBC\STDDEF.H
C:\PROGRAM FILES (X86)\INTEL\INTELSGXSDK\INCLUDE\TLIBC\SYS\CDEFS.H
C:\PROGRAM FILES (X86)\INTEL\INTELSGXSDK\INCLUDE\TLIBC\SYS\_TYPES.H
C:\PROGRAM FILES (X86)\INTEL\INTELSGXSDK\INCLUDE\SGX_DEFS.H
C:\PROGRAM FILES (X86)\INTEL\INTELSGXSDK\INCLUDE\SGX_TSEAL.H
C:\PROGRAM FILES (X86)\INTEL\INTELSGXSDK\INCLUDE\TLIBC\STDINT.H
C:\PROGRAM FILES (X86)\INTEL\INTELSGXSDK\INCLUDE\TLIBC\SYS\STDINT.H
C:\PROGRAM FILES (X86)\INTEL\INTELSGXSDK\INCLUDE\SGX_KEY.H
C:\PROGRAM FILES (X86)\INTEL\INTELSGXSDK\INCLUDE\SGX_ATTRIBUTES.H
C:\PROGRAM FILES (X86)\INTEL\INTELSGXSDK\INCLUDE\SGX_TCRYPTO.H
C:\PROGRAM FILES (X86)\INTEL\INTELSGXSDK\INCLUDE\SGX.H
C:\PROGRAM FILES (X86)\INTEL\INTELSGXSDK\INCLUDE\SGX_REPORT.H
C:\PROGRAM FILES (X86)\INTEL\INTELSGXSDK\INCLUDE\TLIBC\STRING.H
^C:\USERS\FS5VE\DOCUMENTS\VISUAL STUDIO 2015\PROJECTS\FACEDETECTIONENCLAVE\FACEDETECTIONENCLAVE\FACEDETECTIONENCLAVE_T.C
C:\WINDOWS\GLOBALIZATION\SORTING\SORTDEFAULT.NLS
C:\PROGRAM FILES (X86)\MICROSOFT VISUAL STUDIO 14.0\VC\BIN\1033\CLUI.DLL
C:\WINDOWS\SYSTEM32\RSAENH.DLL
C:\WINDOWS\SYSTEM32\TZRES.DLL
C:\USERS\FS5VE\DOCUMENTS\VISUAL STUDIO 2015\PROJECTS\FACEDETECTIONENCLAVE\FACEDETECTIONENCLAVE\FACEDETECTIONENCLAVE_T.H
C:\PROGRAM FILES (X86)\INTEL\INTELSGXSDK\INCLUDE\TLIBC\STDINT.H
C:\PROGRAM FILES (X86)\INTEL\INTELSGXSDK\INCLUDE\TLIBC\SYS\STDINT.H
C:\PROGRAM FILES (X86)\INTEL\INTELSGXSDK\INCLUDE\TLIBC\SYS\CDEFS.H
C:\PROGRAM FILES (X86)\INTEL\INTELSGXSDK\INCLUDE\TLIBC\SYS\_TYPES.H
C:\PROGRAM FILES (X86)\INTEL\INTELSGXSDK\INCLUDE\TLIBC\WCHAR.H
C:\PROGRAM FILES (X86)\INTEL\INTELSGXSDK\INCLUDE\TLIBC\STDDEF.H
C:\PROGRAM FILES (X86)\INTEL\INTELSGXSDK\INCLUDE\SGX_EDGER8R.H
C:\PROGRAM FILES (X86)\INTEL\INTELSGXSDK\INCLUDE\SGX_DEFS.H
C:\PROGRAM FILES (X86)\INTEL\INTELSGXSDK\INCLUDE\SGX_ERROR.H
C:\PROGRAM FILES (X86)\INTEL\INTELSGXSDK\INCLUDE\SGX_EID.H
C:\PROGRAM FILES (X86)\INTEL\INTELSGXSDK\INCLUDE\SGX_TRTS.H
C:\PROGRAM FILES (X86)\INTEL\INTELSGXSDK\INCLUDE\SGX_LFENCE.H
C:\PROGRAM FILES (X86)\INTEL\INTELSGXSDK\INCLUDE\TLIBC\ERRNO.H
C:\PROGRAM FILES (X86)\INTEL\INTELSGXSDK\INCLUDE\TLIBC\STRING.H
C:\PROGRAM FILES (X86)\INTEL\INTELSGXSDK\INCLUDE\TLIBC\STDLIB.H
