^C:\USERS\FS5VE\DOCUMENTS\VISUAL STUDIO 2015\PROJECTS\FACEDETECTIONENCLAVE\FACEDETECTIONAPP\FACEDETECTIONENCLAVE_U.C
C:\WINDOWS\GLOBALIZATION\SORTING\SORTDEFAULT.NLS
C:\PROGRAM FILES (X86)\MICROSOFT VISUAL STUDIO 14.0\VC\BIN\1033\CLUI.DLL
C:\WINDOWS\SYSTEM32\RSAENH.DLL
C:\WINDOWS\SYSTEM32\TZRES.DLL
C:\USERS\FS5VE\DOCUMENTS\VISUAL STUDIO 2015\PROJECTS\FACEDETECTIONENCLAVE\FACEDETECTIONAPP\FACEDETECTIONENCLAVE_U.H
C:\PROGRAM FILES (X86)\MICROSOFT VISUAL STUDIO 14.0\VC\INCLUDE\STDINT.H
C:\PROGRAM FILES (X86)\MICROSOFT VISUAL STUDIO 14.0\VC\INCLUDE\VCRUNTIME.H
C:\PROGRAM FILES (X86)\MICROSOFT VISUAL STUDIO 14.0\VC\INCLUDE\SAL.H
C:\PROGRAM FILES (X86)\MICROSOFT VISUAL STUDIO 14.0\VC\INCLUDE\CONCURRENCYSAL.H
C:\PROGRAM FILES (X86)\MICROSOFT VISUAL STUDIO 14.0\VC\INCLUDE\VADEFS.H
C:\PROGRAM FILES (X86)\WINDOWS KITS\10\INCLUDE\10.0.10240.0\UCRT\WCHAR.H
C:\PROGRAM FILES (X86)\WINDOWS KITS\10\INCLUDE\10.0.10240.0\UCRT\CORECRT.H
C:\PROGRAM FILES (X86)\WINDOWS KITS\10\INCLUDE\10.0.10240.0\UCRT\CORECRT_MEMCPY_S.H
C:\PROGRAM FILES (X86)\WINDOWS KITS\10\INCLUDE\10.0.10240.0\UCRT\ERRNO.H
C:\PROGRAM FILES (X86)\MICROSOFT VISUAL STUDIO 14.0\VC\INCLUDE\VCRUNTIME_STRING.H
C:\PROGRAM FILES (X86)\WINDOWS KITS\10\INCLUDE\10.0.10240.0\UCRT\CORECRT_WCONIO.H
C:\PROGRAM FILES (X86)\WINDOWS KITS\10\INCLUDE\10.0.10240.0\UCRT\CORECRT_STDIO_CONFIG.H
C:\PROGRAM FILES (X86)\WINDOWS KITS\10\INCLUDE\10.0.10240.0\UCRT\CORECRT_WCTYPE.H
C:\PROGRAM FILES (X86)\WINDOWS KITS\10\INCLUDE\10.0.10240.0\UCRT\CORECRT_WDIRECT.H
C:\PROGRAM FILES (X86)\WINDOWS KITS\10\INCLUDE\10.0.10240.0\UCRT\CORECRT_WIO.H
C:\PROGRAM FILES (X86)\WINDOWS KITS\10\INCLUDE\10.0.10240.0\UCRT\CORECRT_SHARE.H
C:\PROGRAM FILES (X86)\WINDOWS KITS\10\INCLUDE\10.0.10240.0\UCRT\CORECRT_WPROCESS.H
C:\PROGRAM FILES (X86)\WINDOWS KITS\10\INCLUDE\10.0.10240.0\UCRT\CORECRT_WSTDIO.H
C:\PROGRAM FILES (X86)\WINDOWS KITS\10\INCLUDE\10.0.10240.0\UCRT\CORECRT_WSTDLIB.H
C:\PROGRAM FILES (X86)\WINDOWS KITS\10\INCLUDE\10.0.10240.0\UCRT\CORECRT_WSTRING.H
C:\PROGRAM FILES (X86)\WINDOWS KITS\10\INCLUDE\10.0.10240.0\UCRT\CORECRT_WTIME.H
C:\PROGRAM FILES (X86)\WINDOWS KITS\10\INCLUDE\10.0.10240.0\UCRT\SYS\STAT.H
C:\PROGRAM FILES (X86)\WINDOWS KITS\10\INCLUDE\10.0.10240.0\UCRT\SYS\TYPES.H
C:\PROGRAM FILES (X86)\WINDOWS KITS\10\INCLUDE\10.0.10240.0\UCRT\STDDEF.H
C:\PROGRAM FILES (X86)\WINDOWS KITS\10\INCLUDE\10.0.10240.0\UCRT\STRING.H
C:\PROGRAM FILES (X86)\WINDOWS KITS\10\INCLUDE\10.0.10240.0\UCRT\CORECRT_MEMORY.H
C:\PROGRAM FILES (X86)\INTEL\INTELSGXSDK\INCLUDE\SGX_EDGER8R.H
C:\PROGRAM FILES (X86)\INTEL\INTELSGXSDK\INCLUDE\SGX_DEFS.H
C:\PROGRAM FILES (X86)\INTEL\INTELSGXSDK\INCLUDE\SGX_ERROR.H
C:\PROGRAM FILES (X86)\INTEL\INTELSGXSDK\INCLUDE\SGX_EID.H
^C:\USERS\FS5VE\DOCUMENTS\VISUAL STUDIO 2015\PROJECTS\FACEDETECTIONENCLAVE\FACEDETECTIONAPP\SOURCE.CPP
C:\WINDOWS\GLOBALIZATION\SORTING\SORTDEFAULT.NLS
C:\PROGRAM FILES (X86)\MICROSOFT VISUAL STUDIO 14.0\VC\BIN\1033\CLUI.DLL
C:\WINDOWS\SYSTEM32\RSAENH.DLL
C:\WINDOWS\SYSTEM32\TZRES.DLL
C:\PROGRAM FILES (X86)\WINDOWS KITS\8.1\INCLUDE\UM\WINDOWS.H
C:\PROGRAM FILES (X86)\WINDOWS KITS\8.1\INCLUDE\SHARED\WINAPIFAMILY.H
C:\PROGRAM FILES (X86)\WINDOWS KITS\8.1\INCLUDE\SHARED\SDKDDKVER.H
C:\PROGRAM FILES (X86)\MICROSOFT VISUAL STUDIO 14.0\VC\INCLUDE\EXCPT.H
C:\PROGRAM FILES (X86)\MICROSOFT VISUAL STUDIO 14.0\VC\INCLUDE\VCRUNTIME.H
C:\PROGRAM FILES (X86)\MICROSOFT VISUAL STUDIO 14.0\VC\INCLUDE\SAL.H
C:\PROGRAM FILES (X86)\MICROSOFT VISUAL STUDIO 14.0\VC\INCLUDE\CONCURRENCYSAL.H
C:\PROGRAM FILES (X86)\MICROSOFT VISUAL STUDIO 14.0\VC\INCLUDE\VADEFS.H
C:\PROGRAM FILES (X86)\MICROSOFT VISUAL STUDIO 14.0\VC\INCLUDE\STDARG.H
C:\PROGRAM FILES (X86)\WINDOWS KITS\8.1\INCLUDE\SHARED\WINDEF.H
C:\PROGRAM FILES (X86)\WINDOWS KITS\8.1\INCLUDE\SHARED\MINWINDEF.H
C:\PROGRAM FILES (X86)\WINDOWS KITS\8.1\INCLUDE\SHARED\SPECSTRINGS.H
C:\PROGRAM FILES (X86)\WINDOWS KITS\8.1\INCLUDE\SHARED\SPECSTRINGS_STRICT.H
C:\PROGRAM FILES (X86)\WINDOWS KITS\8.1\INCLUDE\SHARED\SPECSTRINGS_UNDEF.H
C:\PROGRAM FILES (X86)\WINDOWS KITS\8.1\INCLUDE\SHARED\DRIVERSPECS.H
C:\PROGRAM FILES (X86)\WINDOWS KITS\8.1\INCLUDE\SHARED\SDV_DRIVERSPECS.H
C:\PROGRAM FILES (X86)\WINDOWS KITS\8.1\INCLUDE\UM\WINNT.H
C:\PROGRAM FILES (X86)\WINDOWS KITS\10\INCLUDE\10.0.10240.0\UCRT\CTYPE.H
C:\PROGRAM FILES (X86)\WINDOWS KITS\10\INCLUDE\10.0.10240.0\UCRT\CORECRT.H
C:\PROGRAM FILES (X86)\WINDOWS KITS\10\INCLUDE\10.0.10240.0\UCRT\CORECRT_WCTYPE.H
C:\PROGRAM FILES (X86)\WINDOWS KITS\8.1\INCLUDE\SHARED\KERNELSPECS.H
C:\PROGRAM FILES (X86)\WINDOWS KITS\8.1\INCLUDE\SHARED\BASETSD.H
C:\PROGRAM FILES (X86)\WINDOWS KITS\8.1\INCLUDE\SHARED\GUIDDEF.H
C:\PROGRAM FILES (X86)\WINDOWS KITS\10\INCLUDE\10.0.10240.0\UCRT\STRING.H
C:\PROGRAM FILES (X86)\WINDOWS KITS\10\INCLUDE\10.0.10240.0\UCRT\CORECRT_MEMORY.H
C:\PROGRAM FILES (X86)\WINDOWS KITS\10\INCLUDE\10.0.10240.0\UCRT\CORECRT_MEMCPY_S.H
C:\PROGRAM FILES (X86)\WINDOWS KITS\10\INCLUDE\10.0.10240.0\UCRT\ERRNO.H
C:\PROGRAM FILES (X86)\MICROSOFT VISUAL STUDIO 14.0\VC\INCLUDE\VCRUNTIME_STRING.H
C:\PROGRAM FILES (X86)\WINDOWS KITS\10\INCLUDE\10.0.10240.0\UCRT\CORECRT_WSTRING.H
C:\PROGRAM FILES (X86)\WINDOWS KITS\8.1\INCLUDE\SHARED\PSHPACK4.H
C:\PROGRAM FILES (X86)\WINDOWS KITS\8.1\INCLUDE\SHARED\POPPACK.H
C:\PROGRAM FILES (X86)\WINDOWS KITS\8.1\INCLUDE\SHARED\PSHPACK2.H
C:\PROGRAM FILES (X86)\WINDOWS KITS\8.1\INCLUDE\SHARED\PSHPACK8.H
C:\PROGRAM FILES (X86)\WINDOWS KITS\8.1\INCLUDE\SHARED\APISET.H
C:\PROGRAM FILES (X86)\WINDOWS KITS\8.1\INCLUDE\SHARED\KTMTYPES.H
C:\PROGRAM FILES (X86)\WINDOWS KITS\8.1\INCLUDE\UM\WINBASE.H
C:\PROGRAM FILES (X86)\WINDOWS KITS\8.1\INCLUDE\SHARED\APISETCCONV.H
C:\PROGRAM FILES (X86)\WINDOWS KITS\8.1\INCLUDE\UM\MINWINBASE.H
C:\PROGRAM FILES (X86)\WINDOWS KITS\8.1\INCLUDE\UM\PROCESSENV.H
C:\PROGRAM FILES (X86)\WINDOWS KITS\8.1\INCLUDE\UM\FILEAPI.H
C:\PROGRAM FILES (X86)\WINDOWS KITS\8.1\INCLUDE\UM\DEBUGAPI.H
C:\PROGRAM FILES (X86)\WINDOWS KITS\8.1\INCLUDE\UM\UTILAPISET.H
C:\PROGRAM FILES (X86)\WINDOWS KITS\8.1\INCLUDE\UM\HANDLEAPI.H
C:\PROGRAM FILES (X86)\WINDOWS KITS\8.1\INCLUDE\UM\ERRHANDLINGAPI.H
C:\PROGRAM FILES (X86)\WINDOWS KITS\8.1\INCLUDE\UM\FIBERSAPI.H
C:\PROGRAM FILES (X86)\WINDOWS KITS\8.1\INCLUDE\UM\NAMEDPIPEAPI.H
C:\PROGRAM FILES (X86)\WINDOWS KITS\8.1\INCLUDE\UM\PROFILEAPI.H
C:\PROGRAM FILES (X86)\WINDOWS KITS\8.1\INCLUDE\UM\HEAPAPI.H
C:\PROGRAM FILES (X86)\WINDOWS KITS\8.1\INCLUDE\UM\IOAPISET.H
C:\PROGRAM FILES (X86)\WINDOWS KITS\8.1\INCLUDE\UM\SYNCHAPI.H
C:\PROGRAM FILES (X86)\WINDOWS KITS\8.1\INCLUDE\UM\INTERLOCKEDAPI.H
C:\PROGRAM FILES (X86)\WINDOWS KITS\8.1\INCLUDE\UM\PROCESSTHREADSAPI.H
C:\PROGRAM FILES (X86)\WINDOWS KITS\8.1\INCLUDE\UM\SYSINFOAPI.H
C:\PROGRAM FILES (X86)\WINDOWS KITS\8.1\INCLUDE\UM\MEMORYAPI.H
C:\PROGRAM FILES (X86)\WINDOWS KITS\8.1\INCLUDE\UM\THREADPOOLLEGACYAPISET.H
C:\PROGRAM FILES (X86)\WINDOWS KITS\8.1\INCLUDE\UM\THREADPOOLAPISET.H
C:\PROGRAM FILES (X86)\WINDOWS KITS\8.1\INCLUDE\UM\BEMAPISET.H
C:\PROGRAM FILES (X86)\WINDOWS KITS\8.1\INCLUDE\UM\JOBAPI.H
C:\PROGRAM FILES (X86)\WINDOWS KITS\8.1\INCLUDE\UM\WOW64APISET.H
C:\PROGRAM FILES (X86)\WINDOWS KITS\8.1\INCLUDE\UM\LIBLOADERAPI.H
C:\PROGRAM FILES (X86)\WINDOWS KITS\8.1\INCLUDE\UM\SECURITYBASEAPI.H
C:\PROGRAM FILES (X86)\WINDOWS KITS\8.1\INCLUDE\UM\NAMESPACEAPI.H
C:\PROGRAM FILES (X86)\WINDOWS KITS\8.1\INCLUDE\UM\SYSTEMTOPOLOGYAPI.H
C:\PROGRAM FILES (X86)\WINDOWS KITS\8.1\INCLUDE\UM\PROCESSTOPOLOGYAPI.H
C:\PROGRAM FILES (X86)\WINDOWS KITS\8.1\INCLUDE\UM\SECURITYAPPCONTAINER.H
C:\PROGRAM FILES (X86)\WINDOWS KITS\8.1\INCLUDE\UM\REALTIMEAPISET.H
C:\PROGRAM FILES (X86)\WINDOWS KITS\8.1\INCLUDE\SHARED\WINERROR.H
C:\PROGRAM FILES (X86)\WINDOWS KITS\8.1\INCLUDE\UM\TIMEZONEAPI.H
C:\PROGRAM FILES (X86)\WINDOWS KITS\8.1\INCLUDE\UM\WINGDI.H
C:\PROGRAM FILES (X86)\WINDOWS KITS\8.1\INCLUDE\SHARED\PSHPACK1.H
C:\PROGRAM FILES (X86)\WINDOWS KITS\8.1\INCLUDE\UM\WINUSER.H
C:\PROGRAM FILES (X86)\WINDOWS KITS\8.1\INCLUDE\SHARED\TVOUT.H
C:\PROGRAM FILES (X86)\WINDOWS KITS\8.1\INCLUDE\UM\WINNLS.H
C:\PROGRAM FILES (X86)\WINDOWS KITS\8.1\INCLUDE\UM\DATETIMEAPI.H
C:\PROGRAM FILES (X86)\WINDOWS KITS\8.1\INCLUDE\UM\STRINGAPISET.H
C:\PROGRAM FILES (X86)\WINDOWS KITS\8.1\INCLUDE\UM\WINCON.H
C:\PROGRAM FILES (X86)\WINDOWS KITS\8.1\INCLUDE\UM\CONSOLEAPI.H
C:\PROGRAM FILES (X86)\WINDOWS KITS\8.1\INCLUDE\UM\WINVER.H
C:\PROGRAM FILES (X86)\WINDOWS KITS\8.1\INCLUDE\UM\VERRSRC.H
C:\PROGRAM FILES (X86)\WINDOWS KITS\8.1\INCLUDE\UM\WINREG.H
C:\PROGRAM FILES (X86)\WINDOWS KITS\8.1\INCLUDE\UM\REASON.H
C:\PROGRAM FILES (X86)\WINDOWS KITS\8.1\INCLUDE\UM\WINNETWK.H
C:\PROGRAM FILES (X86)\WINDOWS KITS\8.1\INCLUDE\SHARED\WNNC.H
C:\PROGRAM FILES (X86)\WINDOWS KITS\8.1\INCLUDE\SHARED\CDERR.H
C:\PROGRAM FILES (X86)\WINDOWS KITS\8.1\INCLUDE\UM\DDE.H
C:\PROGRAM FILES (X86)\WINDOWS KITS\8.1\INCLUDE\UM\DDEML.H
C:\PROGRAM FILES (X86)\WINDOWS KITS\8.1\INCLUDE\UM\DLGS.H
C:\PROGRAM FILES (X86)\WINDOWS KITS\8.1\INCLUDE\UM\LZEXPAND.H
C:\PROGRAM FILES (X86)\WINDOWS KITS\8.1\INCLUDE\UM\MMSYSTEM.H
C:\PROGRAM FILES (X86)\WINDOWS KITS\8.1\INCLUDE\UM\MMSYSCOM.H
C:\PROGRAM FILES (X86)\WINDOWS KITS\8.1\INCLUDE\UM\MCIAPI.H
C:\PROGRAM FILES (X86)\WINDOWS KITS\8.1\INCLUDE\UM\MMISCAPI.H
C:\PROGRAM FILES (X86)\WINDOWS KITS\8.1\INCLUDE\UM\MMISCAPI2.H
C:\PROGRAM FILES (X86)\WINDOWS KITS\8.1\INCLUDE\UM\PLAYSOUNDAPI.H
C:\PROGRAM FILES (X86)\WINDOWS KITS\8.1\INCLUDE\UM\MMEAPI.H
C:\PROGRAM FILES (X86)\WINDOWS KITS\8.1\INCLUDE\UM\TIMEAPI.H
C:\PROGRAM FILES (X86)\WINDOWS KITS\8.1\INCLUDE\UM\JOYSTICKAPI.H
C:\PROGRAM FILES (X86)\WINDOWS KITS\8.1\INCLUDE\UM\NB30.H
C:\PROGRAM FILES (X86)\WINDOWS KITS\8.1\INCLUDE\SHARED\RPC.H
C:\PROGRAM FILES (X86)\WINDOWS KITS\8.1\INCLUDE\SHARED\RPCDCE.H
C:\PROGRAM FILES (X86)\WINDOWS KITS\8.1\INCLUDE\SHARED\RPCDCEP.H
C:\PROGRAM FILES (X86)\WINDOWS KITS\8.1\INCLUDE\UM\RPCNSI.H
C:\PROGRAM FILES (X86)\WINDOWS KITS\8.1\INCLUDE\SHARED\RPCNTERR.H
C:\PROGRAM FILES (X86)\WINDOWS KITS\8.1\INCLUDE\SHARED\RPCASYNC.H
C:\PROGRAM FILES (X86)\WINDOWS KITS\8.1\INCLUDE\UM\SHELLAPI.H
C:\PROGRAM FILES (X86)\WINDOWS KITS\8.1\INCLUDE\UM\WINPERF.H
C:\PROGRAM FILES (X86)\WINDOWS KITS\8.1\INCLUDE\UM\WINSOCK.H
C:\PROGRAM FILES (X86)\WINDOWS KITS\8.1\INCLUDE\SHARED\INADDR.H
C:\PROGRAM FILES (X86)\WINDOWS KITS\8.1\INCLUDE\UM\WINCRYPT.H
C:\PROGRAM FILES (X86)\WINDOWS KITS\8.1\INCLUDE\SHARED\BCRYPT.H
C:\PROGRAM FILES (X86)\WINDOWS KITS\8.1\INCLUDE\UM\NCRYPT.H
C:\PROGRAM FILES (X86)\WINDOWS KITS\8.1\INCLUDE\UM\DPAPI.H
C:\PROGRAM FILES (X86)\WINDOWS KITS\8.1\INCLUDE\UM\WINEFS.H
C:\PROGRAM FILES (X86)\WINDOWS KITS\8.1\INCLUDE\UM\WINSCARD.H
C:\PROGRAM FILES (X86)\WINDOWS KITS\8.1\INCLUDE\SHARED\WTYPES.H
C:\PROGRAM FILES (X86)\WINDOWS KITS\8.1\INCLUDE\SHARED\RPCNDR.H
C:\PROGRAM FILES (X86)\WINDOWS KITS\8.1\INCLUDE\UM\RPCNSIP.H
C:\PROGRAM FILES (X86)\WINDOWS KITS\8.1\INCLUDE\SHARED\RPCSAL.H
C:\PROGRAM FILES (X86)\WINDOWS KITS\8.1\INCLUDE\SHARED\WTYPESBASE.H
C:\PROGRAM FILES (X86)\WINDOWS KITS\8.1\INCLUDE\UM\WINIOCTL.H
C:\PROGRAM FILES (X86)\WINDOWS KITS\8.1\INCLUDE\SHARED\WINSMCRD.H
C:\PROGRAM FILES (X86)\WINDOWS KITS\8.1\INCLUDE\UM\WINSPOOL.H
C:\PROGRAM FILES (X86)\WINDOWS KITS\8.1\INCLUDE\UM\PRSHT.H
C:\PROGRAM FILES (X86)\WINDOWS KITS\8.1\INCLUDE\UM\OLE2.H
C:\PROGRAM FILES (X86)\WINDOWS KITS\8.1\INCLUDE\UM\OBJBASE.H
C:\PROGRAM FILES (X86)\WINDOWS KITS\8.1\INCLUDE\UM\COMBASEAPI.H
C:\PROGRAM FILES (X86)\WINDOWS KITS\10\INCLUDE\10.0.10240.0\UCRT\STDLIB.H
C:\PROGRAM FILES (X86)\WINDOWS KITS\10\INCLUDE\10.0.10240.0\UCRT\CORECRT_MALLOC.H
C:\PROGRAM FILES (X86)\WINDOWS KITS\10\INCLUDE\10.0.10240.0\UCRT\CORECRT_SEARCH.H
C:\PROGRAM FILES (X86)\WINDOWS KITS\10\INCLUDE\10.0.10240.0\UCRT\STDDEF.H
C:\PROGRAM FILES (X86)\WINDOWS KITS\10\INCLUDE\10.0.10240.0\UCRT\CORECRT_WSTDLIB.H
C:\PROGRAM FILES (X86)\MICROSOFT VISUAL STUDIO 14.0\VC\INCLUDE\LIMITS.H
C:\PROGRAM FILES (X86)\WINDOWS KITS\8.1\INCLUDE\UM\UNKNWNBASE.H
C:\PROGRAM FILES (X86)\WINDOWS KITS\8.1\INCLUDE\UM\OBJIDLBASE.H
C:\PROGRAM FILES (X86)\WINDOWS KITS\8.1\INCLUDE\UM\CGUID.H
C:\PROGRAM FILES (X86)\WINDOWS KITS\8.1\INCLUDE\UM\OBJIDL.H
C:\PROGRAM FILES (X86)\WINDOWS KITS\8.1\INCLUDE\UM\UNKNWN.H
C:\PROGRAM FILES (X86)\WINDOWS KITS\8.1\INCLUDE\UM\URLMON.H
C:\PROGRAM FILES (X86)\WINDOWS KITS\8.1\INCLUDE\UM\OLEIDL.H
C:\PROGRAM FILES (X86)\WINDOWS KITS\8.1\INCLUDE\UM\SERVPROV.H
C:\PROGRAM FILES (X86)\WINDOWS KITS\8.1\INCLUDE\UM\MSXML.H
C:\PROGRAM FILES (X86)\WINDOWS KITS\8.1\INCLUDE\UM\OAIDL.H
C:\PROGRAM FILES (X86)\WINDOWS KITS\8.1\INCLUDE\UM\PROPIDL.H
C:\PROGRAM FILES (X86)\WINDOWS KITS\8.1\INCLUDE\UM\OLEAUTO.H
C:\PROGRAM FILES (X86)\WINDOWS KITS\8.1\INCLUDE\UM\COMMDLG.H
C:\PROGRAM FILES (X86)\WINDOWS KITS\8.1\INCLUDE\SHARED\STRALIGN.H
C:\PROGRAM FILES (X86)\WINDOWS KITS\8.1\INCLUDE\UM\WINSVC.H
C:\PROGRAM FILES (X86)\WINDOWS KITS\8.1\INCLUDE\UM\MCX.H
C:\PROGRAM FILES (X86)\WINDOWS KITS\8.1\INCLUDE\UM\IMM.H
C:\PROGRAM FILES (X86)\WINDOWS KITS\8.1\INCLUDE\UM\IME_CMODES.H
C:\USERS\FS5VE\DOWNLOADS\OPENCV-WITH-EXTRA\OPENCV\BUILD\INSTALL\INCLUDE\OPENCV2\FACE.HPP
C:\USERS\FS5VE\DOWNLOADS\OPENCV-WITH-EXTRA\OPENCV\BUILD\INSTALL\INCLUDE\OPENCV2\CORE.HPP
C:\USERS\FS5VE\DOWNLOADS\OPENCV-WITH-EXTRA\OPENCV\BUILD\INSTALL\INCLUDE\OPENCV2\CORE\CVDEF.H
C:\USERS\FS5VE\DOWNLOADS\OPENCV-WITH-EXTRA\OPENCV\BUILD\INSTALL\INCLUDE\OPENCV2\CORE\HAL\INTERFACE.H
C:\PROGRAM FILES (X86)\MICROSOFT VISUAL STUDIO 14.0\VC\INCLUDE\CSTDDEF
C:\PROGRAM FILES (X86)\MICROSOFT VISUAL STUDIO 14.0\VC\INCLUDE\YVALS.H
C:\PROGRAM FILES (X86)\MICROSOFT VISUAL STUDIO 14.0\VC\INCLUDE\XKEYCHECK.H
C:\PROGRAM FILES (X86)\MICROSOFT VISUAL STUDIO 14.0\VC\INCLUDE\CRTDEFS.H
C:\PROGRAM FILES (X86)\MICROSOFT VISUAL STUDIO 14.0\VC\INCLUDE\USE_ANSI.H
C:\USERS\FS5VE\DOWNLOADS\OPENCV-WITH-EXTRA\OPENCV\BUILD\INSTALL\INCLUDE\OPENCV2\CORE\CV_CPU_DISPATCH.H
C:\PROGRAM FILES (X86)\MICROSOFT VISUAL STUDIO 14.0\VC\INCLUDE\EMMINTRIN.H
C:\PROGRAM FILES (X86)\MICROSOFT VISUAL STUDIO 14.0\VC\INCLUDE\XMMINTRIN.H
C:\PROGRAM FILES (X86)\MICROSOFT VISUAL STUDIO 14.0\VC\INCLUDE\MMINTRIN.H
C:\PROGRAM FILES (X86)\WINDOWS KITS\10\INCLUDE\10.0.10240.0\UCRT\MALLOC.H
C:\PROGRAM FILES (X86)\MICROSOFT VISUAL STUDIO 14.0\VC\INCLUDE\INTRIN.H
C:\PROGRAM FILES (X86)\MICROSOFT VISUAL STUDIO 14.0\VC\INCLUDE\SETJMP.H
C:\PROGRAM FILES (X86)\MICROSOFT VISUAL STUDIO 14.0\VC\INCLUDE\IMMINTRIN.H
C:\PROGRAM FILES (X86)\MICROSOFT VISUAL STUDIO 14.0\VC\INCLUDE\WMMINTRIN.H
C:\PROGRAM FILES (X86)\MICROSOFT VISUAL STUDIO 14.0\VC\INCLUDE\NMMINTRIN.H
C:\PROGRAM FILES (X86)\MICROSOFT VISUAL STUDIO 14.0\VC\INCLUDE\SMMINTRIN.H
C:\PROGRAM FILES (X86)\MICROSOFT VISUAL STUDIO 14.0\VC\INCLUDE\TMMINTRIN.H
C:\PROGRAM FILES (X86)\MICROSOFT VISUAL STUDIO 14.0\VC\INCLUDE\PMMINTRIN.H
C:\PROGRAM FILES (X86)\MICROSOFT VISUAL STUDIO 14.0\VC\INCLUDE\AMMINTRIN.H
C:\PROGRAM FILES (X86)\MICROSOFT VISUAL STUDIO 14.0\VC\INCLUDE\MM3DNOW.H
C:\PROGRAM FILES (X86)\MICROSOFT VISUAL STUDIO 14.0\VC\INCLUDE\ARRAY
C:\PROGRAM FILES (X86)\MICROSOFT VISUAL STUDIO 14.0\VC\INCLUDE\ALGORITHM
C:\PROGRAM FILES (X86)\MICROSOFT VISUAL STUDIO 14.0\VC\INCLUDE\XMEMORY
C:\PROGRAM FILES (X86)\MICROSOFT VISUAL STUDIO 14.0\VC\INCLUDE\XMEMORY0
C:\PROGRAM FILES (X86)\MICROSOFT VISUAL STUDIO 14.0\VC\INCLUDE\CSTDINT
C:\PROGRAM FILES (X86)\MICROSOFT VISUAL STUDIO 14.0\VC\INCLUDE\STDINT.H
C:\PROGRAM FILES (X86)\MICROSOFT VISUAL STUDIO 14.0\VC\INCLUDE\CSTDLIB
C:\PROGRAM FILES (X86)\MICROSOFT VISUAL STUDIO 14.0\VC\INCLUDE\LIMITS
C:\PROGRAM FILES (X86)\MICROSOFT VISUAL STUDIO 14.0\VC\INCLUDE\YMATH.H
C:\PROGRAM FILES (X86)\MICROSOFT VISUAL STUDIO 14.0\VC\INCLUDE\CFLOAT
C:\PROGRAM FILES (X86)\WINDOWS KITS\10\INCLUDE\10.0.10240.0\UCRT\FLOAT.H
C:\PROGRAM FILES (X86)\MICROSOFT VISUAL STUDIO 14.0\VC\INCLUDE\CLIMITS
C:\PROGRAM FILES (X86)\MICROSOFT VISUAL STUDIO 14.0\VC\INCLUDE\CMATH
C:\PROGRAM FILES (X86)\WINDOWS KITS\10\INCLUDE\10.0.10240.0\UCRT\MATH.H
C:\PROGRAM FILES (X86)\MICROSOFT VISUAL STUDIO 14.0\VC\INCLUDE\XTGMATH.H
C:\PROGRAM FILES (X86)\MICROSOFT VISUAL STUDIO 14.0\VC\INCLUDE\XTR1COMMON
C:\PROGRAM FILES (X86)\MICROSOFT VISUAL STUDIO 14.0\VC\INCLUDE\CWCHAR
C:\PROGRAM FILES (X86)\WINDOWS KITS\10\INCLUDE\10.0.10240.0\UCRT\WCHAR.H
C:\PROGRAM FILES (X86)\WINDOWS KITS\10\INCLUDE\10.0.10240.0\UCRT\CORECRT_WCONIO.H
C:\PROGRAM FILES (X86)\WINDOWS KITS\10\INCLUDE\10.0.10240.0\UCRT\CORECRT_STDIO_CONFIG.H
C:\PROGRAM FILES (X86)\WINDOWS KITS\10\INCLUDE\10.0.10240.0\UCRT\CORECRT_WDIRECT.H
C:\PROGRAM FILES (X86)\WINDOWS KITS\10\INCLUDE\10.0.10240.0\UCRT\CORECRT_WIO.H
C:\PROGRAM FILES (X86)\WINDOWS KITS\10\INCLUDE\10.0.10240.0\UCRT\CORECRT_SHARE.H
C:\PROGRAM FILES (X86)\WINDOWS KITS\10\INCLUDE\10.0.10240.0\UCRT\CORECRT_WPROCESS.H
C:\PROGRAM FILES (X86)\WINDOWS KITS\10\INCLUDE\10.0.10240.0\UCRT\CORECRT_WSTDIO.H
C:\PROGRAM FILES (X86)\WINDOWS KITS\10\INCLUDE\10.0.10240.0\UCRT\CORECRT_WTIME.H
C:\PROGRAM FILES (X86)\WINDOWS KITS\10\INCLUDE\10.0.10240.0\UCRT\SYS\STAT.H
C:\PROGRAM FILES (X86)\WINDOWS KITS\10\INCLUDE\10.0.10240.0\UCRT\SYS\TYPES.H
C:\PROGRAM FILES (X86)\MICROSOFT VISUAL STUDIO 14.0\VC\INCLUDE\XSTDDEF
C:\PROGRAM FILES (X86)\MICROSOFT VISUAL STUDIO 14.0\VC\INCLUDE\INITIALIZER_LIST
C:\PROGRAM FILES (X86)\MICROSOFT VISUAL STUDIO 14.0\VC\INCLUDE\NEW
C:\PROGRAM FILES (X86)\MICROSOFT VISUAL STUDIO 14.0\VC\INCLUDE\EXCEPTION
C:\PROGRAM FILES (X86)\MICROSOFT VISUAL STUDIO 14.0\VC\INCLUDE\TYPE_TRAITS
C:\PROGRAM FILES (X86)\MICROSOFT VISUAL STUDIO 14.0\VC\INCLUDE\VCRUNTIME_EXCEPTION.H
C:\PROGRAM FILES (X86)\MICROSOFT VISUAL STUDIO 14.0\VC\INCLUDE\EH.H
C:\PROGRAM FILES (X86)\WINDOWS KITS\10\INCLUDE\10.0.10240.0\UCRT\CORECRT_TERMINATE.H
C:\PROGRAM FILES (X86)\MICROSOFT VISUAL STUDIO 14.0\VC\INCLUDE\VCRUNTIME_NEW.H
C:\PROGRAM FILES (X86)\MICROSOFT VISUAL STUDIO 14.0\VC\INCLUDE\XUTILITY
C:\PROGRAM FILES (X86)\MICROSOFT VISUAL STUDIO 14.0\VC\INCLUDE\UTILITY
C:\PROGRAM FILES (X86)\MICROSOFT VISUAL STUDIO 14.0\VC\INCLUDE\IOSFWD
C:\PROGRAM FILES (X86)\MICROSOFT VISUAL STUDIO 14.0\VC\INCLUDE\CSTDIO
C:\PROGRAM FILES (X86)\WINDOWS KITS\10\INCLUDE\10.0.10240.0\UCRT\STDIO.H
C:\PROGRAM FILES (X86)\MICROSOFT VISUAL STUDIO 14.0\VC\INCLUDE\CSTRING
C:\PROGRAM FILES (X86)\WINDOWS KITS\10\INCLUDE\10.0.10240.0\UCRT\CRTDBG.H
C:\PROGRAM FILES (X86)\MICROSOFT VISUAL STUDIO 14.0\VC\INCLUDE\VCRUNTIME_NEW_DEBUG.H
C:\PROGRAM FILES (X86)\MICROSOFT VISUAL STUDIO 14.0\VC\INCLUDE\XATOMIC0.H
C:\PROGRAM FILES (X86)\MICROSOFT VISUAL STUDIO 14.0\VC\INCLUDE\ITERATOR
C:\PROGRAM FILES (X86)\MICROSOFT VISUAL STUDIO 14.0\VC\INCLUDE\ISTREAM
C:\PROGRAM FILES (X86)\MICROSOFT VISUAL STUDIO 14.0\VC\INCLUDE\OSTREAM
C:\PROGRAM FILES (X86)\MICROSOFT VISUAL STUDIO 14.0\VC\INCLUDE\IOS
C:\PROGRAM FILES (X86)\MICROSOFT VISUAL STUDIO 14.0\VC\INCLUDE\XLOCNUM
C:\PROGRAM FILES (X86)\MICROSOFT VISUAL STUDIO 14.0\VC\INCLUDE\STREAMBUF
C:\PROGRAM FILES (X86)\MICROSOFT VISUAL STUDIO 14.0\VC\INCLUDE\XIOSBASE
C:\PROGRAM FILES (X86)\MICROSOFT VISUAL STUDIO 14.0\VC\INCLUDE\XLOCALE
C:\PROGRAM FILES (X86)\MICROSOFT VISUAL STUDIO 14.0\VC\INCLUDE\STDEXCEPT
C:\PROGRAM FILES (X86)\MICROSOFT VISUAL STUDIO 14.0\VC\INCLUDE\XSTRING
C:\PROGRAM FILES (X86)\MICROSOFT VISUAL STUDIO 14.0\VC\INCLUDE\TYPEINFO
C:\PROGRAM FILES (X86)\MICROSOFT VISUAL STUDIO 14.0\VC\INCLUDE\VCRUNTIME_TYPEINFO.H
C:\PROGRAM FILES (X86)\MICROSOFT VISUAL STUDIO 14.0\VC\INCLUDE\XLOCINFO
C:\PROGRAM FILES (X86)\MICROSOFT VISUAL STUDIO 14.0\VC\INCLUDE\XLOCINFO.H
C:\PROGRAM FILES (X86)\WINDOWS KITS\10\INCLUDE\10.0.10240.0\UCRT\LOCALE.H
C:\PROGRAM FILES (X86)\MICROSOFT VISUAL STUDIO 14.0\VC\INCLUDE\XFACET
C:\PROGRAM FILES (X86)\MICROSOFT VISUAL STUDIO 14.0\VC\INCLUDE\SYSTEM_ERROR
C:\PROGRAM FILES (X86)\MICROSOFT VISUAL STUDIO 14.0\VC\INCLUDE\CERRNO
C:\PROGRAM FILES (X86)\WINDOWS KITS\10\INCLUDE\10.0.10240.0\UCRT\SHARE.H
C:\PROGRAM FILES (X86)\MICROSOFT VISUAL STUDIO 14.0\VC\INCLUDE\TUPLE
C:\USERS\FS5VE\DOWNLOADS\OPENCV-WITH-EXTRA\OPENCV\BUILD\INSTALL\INCLUDE\OPENCV2\CORE\VERSION.HPP
C:\USERS\FS5VE\DOWNLOADS\OPENCV-WITH-EXTRA\OPENCV\BUILD\INSTALL\INCLUDE\OPENCV2\CORE\BASE.HPP
C:\USERS\FS5VE\DOWNLOADS\OPENCV-WITH-EXTRA\OPENCV\BUILD\INSTALL\INCLUDE\OPENCV2\OPENCV_MODULES.HPP
C:\USERS\FS5VE\DOWNLOADS\OPENCV-WITH-EXTRA\OPENCV\BUILD\INSTALL\INCLUDE\OPENCV2\CORE\CVSTD.HPP
C:\PROGRAM FILES (X86)\MICROSOFT VISUAL STUDIO 14.0\VC\INCLUDE\CCTYPE
C:\PROGRAM FILES (X86)\MICROSOFT VISUAL STUDIO 14.0\VC\INCLUDE\STRING
C:\USERS\FS5VE\DOWNLOADS\OPENCV-WITH-EXTRA\OPENCV\BUILD\INSTALL\INCLUDE\OPENCV2\CORE\PTR.INL.HPP
C:\USERS\FS5VE\DOWNLOADS\OPENCV-WITH-EXTRA\OPENCV\BUILD\INSTALL\INCLUDE\OPENCV2\CORE\NEON_UTILS.HPP
C:\USERS\FS5VE\DOWNLOADS\OPENCV-WITH-EXTRA\OPENCV\BUILD\INSTALL\INCLUDE\OPENCV2\CORE\VSX_UTILS.HPP
C:\PROGRAM FILES (X86)\WINDOWS KITS\10\INCLUDE\10.0.10240.0\UCRT\ASSERT.H
C:\USERS\FS5VE\DOWNLOADS\OPENCV-WITH-EXTRA\OPENCV\BUILD\INSTALL\INCLUDE\OPENCV2\CORE\CHECK.HPP
C:\USERS\FS5VE\DOWNLOADS\OPENCV-WITH-EXTRA\OPENCV\BUILD\INSTALL\INCLUDE\OPENCV2\CORE\TRAITS.HPP
C:\USERS\FS5VE\DOWNLOADS\OPENCV-WITH-EXTRA\OPENCV\BUILD\INSTALL\INCLUDE\OPENCV2\CORE\MATX.HPP
C:\USERS\FS5VE\DOWNLOADS\OPENCV-WITH-EXTRA\OPENCV\BUILD\INSTALL\INCLUDE\OPENCV2\CORE\SATURATE.HPP
C:\USERS\FS5VE\DOWNLOADS\OPENCV-WITH-EXTRA\OPENCV\BUILD\INSTALL\INCLUDE\OPENCV2\CORE\FAST_MATH.HPP
C:\USERS\FS5VE\DOWNLOADS\OPENCV-WITH-EXTRA\OPENCV\BUILD\INSTALL\INCLUDE\OPENCV2\CORE\TYPES.HPP
C:\PROGRAM FILES (X86)\MICROSOFT VISUAL STUDIO 14.0\VC\INCLUDE\VECTOR
C:\USERS\FS5VE\DOWNLOADS\OPENCV-WITH-EXTRA\OPENCV\BUILD\INSTALL\INCLUDE\OPENCV2\CORE\MAT.HPP
C:\USERS\FS5VE\DOWNLOADS\OPENCV-WITH-EXTRA\OPENCV\BUILD\INSTALL\INCLUDE\OPENCV2\CORE\BUFFERPOOL.HPP
C:\USERS\FS5VE\DOWNLOADS\OPENCV-WITH-EXTRA\OPENCV\BUILD\INSTALL\INCLUDE\OPENCV2\CORE\MAT.INL.HPP
C:\USERS\FS5VE\DOWNLOADS\OPENCV-WITH-EXTRA\OPENCV\BUILD\INSTALL\INCLUDE\OPENCV2\CORE\PERSISTENCE.HPP
C:\USERS\FS5VE\DOWNLOADS\OPENCV-WITH-EXTRA\OPENCV\BUILD\INSTALL\INCLUDE\OPENCV2\CORE\OPERATIONS.HPP
C:\USERS\FS5VE\DOWNLOADS\OPENCV-WITH-EXTRA\OPENCV\BUILD\INSTALL\INCLUDE\OPENCV2\CORE\CVSTD.INL.HPP
C:\PROGRAM FILES (X86)\MICROSOFT VISUAL STUDIO 14.0\VC\INCLUDE\COMPLEX
C:\PROGRAM FILES (X86)\MICROSOFT VISUAL STUDIO 14.0\VC\INCLUDE\CCOMPLEX
C:\PROGRAM FILES (X86)\MICROSOFT VISUAL STUDIO 14.0\VC\INCLUDE\SSTREAM
C:\PROGRAM FILES (X86)\MICROSOFT VISUAL STUDIO 14.0\VC\INCLUDE\XCOMPLEX
C:\USERS\FS5VE\DOWNLOADS\OPENCV-WITH-EXTRA\OPENCV\BUILD\INSTALL\INCLUDE\OPENCV2\CORE\UTILITY.HPP
C:\PROGRAM FILES (X86)\MICROSOFT VISUAL STUDIO 14.0\VC\INCLUDE\FUNCTIONAL
C:\PROGRAM FILES (X86)\MICROSOFT VISUAL STUDIO 14.0\VC\INCLUDE\XFUNCTIONAL
C:\PROGRAM FILES (X86)\MICROSOFT VISUAL STUDIO 14.0\VC\INCLUDE\MUTEX
C:\PROGRAM FILES (X86)\MICROSOFT VISUAL STUDIO 14.0\VC\INCLUDE\CHRONO
C:\PROGRAM FILES (X86)\MICROSOFT VISUAL STUDIO 14.0\VC\INCLUDE\RATIO
C:\PROGRAM FILES (X86)\WINDOWS KITS\10\INCLUDE\10.0.10240.0\UCRT\TIME.H
C:\PROGRAM FILES (X86)\MICROSOFT VISUAL STUDIO 14.0\VC\INCLUDE\THR\XTIMEC.H
C:\PROGRAM FILES (X86)\MICROSOFT VISUAL STUDIO 14.0\VC\INCLUDE\THR\XTHRCOMMON.H
C:\PROGRAM FILES (X86)\MICROSOFT VISUAL STUDIO 14.0\VC\INCLUDE\THREAD
C:\PROGRAM FILES (X86)\MICROSOFT VISUAL STUDIO 14.0\VC\INCLUDE\MEMORY
C:\PROGRAM FILES (X86)\MICROSOFT VISUAL STUDIO 14.0\VC\INCLUDE\THR\XTHREAD
C:\PROGRAM FILES (X86)\MICROSOFT VISUAL STUDIO 14.0\VC\INCLUDE\THR\XTIME
C:\PROGRAM FILES (X86)\MICROSOFT VISUAL STUDIO 14.0\VC\INCLUDE\THR\XTHREADS.H
C:\USERS\FS5VE\DOWNLOADS\OPENCV-WITH-EXTRA\OPENCV\BUILD\INSTALL\INCLUDE\OPENCV2\CORE\OPTIM.HPP
C:\USERS\FS5VE\DOWNLOADS\OPENCV-WITH-EXTRA\OPENCV\BUILD\INSTALL\INCLUDE\OPENCV2\CORE\OVX.HPP
C:\USERS\FS5VE\DOWNLOADS\OPENCV-WITH-EXTRA\OPENCV\BUILD\INSTALL\INCLUDE\OPENCV2\FACE\PREDICT_COLLECTOR.HPP
C:\PROGRAM FILES (X86)\MICROSOFT VISUAL STUDIO 14.0\VC\INCLUDE\MAP
C:\PROGRAM FILES (X86)\MICROSOFT VISUAL STUDIO 14.0\VC\INCLUDE\XTREE
C:\USERS\FS5VE\DOWNLOADS\OPENCV-WITH-EXTRA\OPENCV\BUILD\INSTALL\INCLUDE\OPENCV2\FACE\FACEREC.HPP
C:\USERS\FS5VE\DOWNLOADS\OPENCV-WITH-EXTRA\OPENCV\BUILD\INSTALL\INCLUDE\OPENCV2\FACE\FACEMARK.HPP
C:\USERS\FS5VE\DOWNLOADS\OPENCV-WITH-EXTRA\OPENCV\BUILD\INSTALL\INCLUDE\OPENCV2\FACE\FACEMARK_TRAIN.HPP
C:\USERS\FS5VE\DOWNLOADS\OPENCV-WITH-EXTRA\OPENCV\BUILD\INSTALL\INCLUDE\OPENCV2\OBJDETECT.HPP
C:\USERS\FS5VE\DOWNLOADS\OPENCV-WITH-EXTRA\OPENCV\BUILD\INSTALL\INCLUDE\OPENCV2\OBJDETECT\DETECTION_BASED_TRACKER.HPP
C:\USERS\FS5VE\DOWNLOADS\OPENCV-WITH-EXTRA\OPENCV\BUILD\INSTALL\INCLUDE\OPENCV2\FACE\FACEMARKLBF.HPP
C:\USERS\FS5VE\DOWNLOADS\OPENCV-WITH-EXTRA\OPENCV\BUILD\INSTALL\INCLUDE\OPENCV2\FACE\FACEMARKAAM.HPP
C:\USERS\FS5VE\DOWNLOADS\OPENCV-WITH-EXTRA\OPENCV\BUILD\INSTALL\INCLUDE\OPENCV2\FACE\FACE_ALIGNMENT.HPP
C:\USERS\FS5VE\DOWNLOADS\OPENCV-WITH-EXTRA\OPENCV\BUILD\INSTALL\INCLUDE\OPENCV2\FACE\MACE.HPP
C:\PROGRAM FILES (X86)\MICROSOFT VISUAL STUDIO 14.0\VC\INCLUDE\DRAWLANDMARKS.HPP
C:\PROGRAM FILES (X86)\MICROSOFT VISUAL STUDIO 14.0\VC\INCLUDE\IOSTREAM
C:\PROGRAM FILES (X86)\MICROSOFT VISUAL STUDIO 14.0\VC\INCLUDE\FSTREAM
C:\USERS\FS5VE\DOWNLOADS\OPENCV-WITH-EXTRA\OPENCV\BUILD\INSTALL\INCLUDE\OPENCV2\CORE\CORE.HPP
C:\USERS\FS5VE\DOWNLOADS\OPENCV-WITH-EXTRA\OPENCV\BUILD\INSTALL\INCLUDE\OPENCV2\IMGCODECS.HPP
C:\USERS\FS5VE\DOWNLOADS\OPENCV-WITH-EXTRA\OPENCV\BUILD\INSTALL\INCLUDE\OPENCV2\HIGHGUI\HIGHGUI.HPP
C:\USERS\FS5VE\DOWNLOADS\OPENCV-WITH-EXTRA\OPENCV\BUILD\INSTALL\INCLUDE\OPENCV2\HIGHGUI.HPP
C:\USERS\FS5VE\DOWNLOADS\OPENCV-WITH-EXTRA\OPENCV\BUILD\INSTALL\INCLUDE\OPENCV2\VIDEOIO.HPP
C:\USERS\FS5VE\DOWNLOADS\OPENCV-WITH-EXTRA\OPENCV\INCLUDE\OPENCV2\OPENCV.HPP
C:\USERS\FS5VE\DOWNLOADS\OPENCV-WITH-EXTRA\OPENCV\BUILD\INSTALL\INCLUDE\OPENCV2\CALIB3D.HPP
C:\USERS\FS5VE\DOWNLOADS\OPENCV-WITH-EXTRA\OPENCV\BUILD\INSTALL\INCLUDE\OPENCV2\FEATURES2D.HPP
C:\USERS\FS5VE\DOWNLOADS\OPENCV-WITH-EXTRA\OPENCV\BUILD\INSTALL\INCLUDE\OPENCV2\FLANN\MINIFLANN.HPP
C:\USERS\FS5VE\DOWNLOADS\OPENCV-WITH-EXTRA\OPENCV\BUILD\INSTALL\INCLUDE\OPENCV2\FLANN\DEFINES.H
C:\USERS\FS5VE\DOWNLOADS\OPENCV-WITH-EXTRA\OPENCV\BUILD\INSTALL\INCLUDE\OPENCV2\FLANN\CONFIG.H
C:\USERS\FS5VE\DOWNLOADS\OPENCV-WITH-EXTRA\OPENCV\BUILD\INSTALL\INCLUDE\OPENCV2\CORE\AFFINE.HPP
C:\USERS\FS5VE\DOWNLOADS\OPENCV-WITH-EXTRA\OPENCV\BUILD\INSTALL\INCLUDE\OPENCV2\DNN.HPP
C:\USERS\FS5VE\DOWNLOADS\OPENCV-WITH-EXTRA\OPENCV\BUILD\INSTALL\INCLUDE\OPENCV2\DNN\DNN.HPP
C:\USERS\FS5VE\DOWNLOADS\OPENCV-WITH-EXTRA\OPENCV\BUILD\INSTALL\INCLUDE\OPENCV2\DNN\DICT.HPP
C:\USERS\FS5VE\DOWNLOADS\OPENCV-WITH-EXTRA\OPENCV\BUILD\INSTALL\INCLUDE\OPENCV2\DNN\LAYER.HPP
C:\USERS\FS5VE\DOWNLOADS\OPENCV-WITH-EXTRA\OPENCV\BUILD\INSTALL\INCLUDE\OPENCV2\DNN\DNN.INL.HPP
C:\USERS\FS5VE\DOWNLOADS\OPENCV-WITH-EXTRA\OPENCV\BUILD\INSTALL\INCLUDE\OPENCV2\FLANN.HPP
C:\USERS\FS5VE\DOWNLOADS\OPENCV-WITH-EXTRA\OPENCV\BUILD\INSTALL\INCLUDE\OPENCV2\FLANN\FLANN_BASE.HPP
C:\PROGRAM FILES (X86)\MICROSOFT VISUAL STUDIO 14.0\VC\INCLUDE\CASSERT
C:\USERS\FS5VE\DOWNLOADS\OPENCV-WITH-EXTRA\OPENCV\BUILD\INSTALL\INCLUDE\OPENCV2\FLANN\GENERAL.H
C:\USERS\FS5VE\DOWNLOADS\OPENCV-WITH-EXTRA\OPENCV\BUILD\INSTALL\INCLUDE\OPENCV2\FLANN\MATRIX.H
C:\USERS\FS5VE\DOWNLOADS\OPENCV-WITH-EXTRA\OPENCV\BUILD\INSTALL\INCLUDE\OPENCV2\FLANN\PARAMS.H
C:\USERS\FS5VE\DOWNLOADS\OPENCV-WITH-EXTRA\OPENCV\BUILD\INSTALL\INCLUDE\OPENCV2\FLANN\ANY.H
C:\USERS\FS5VE\DOWNLOADS\OPENCV-WITH-EXTRA\OPENCV\BUILD\INSTALL\INCLUDE\OPENCV2\FLANN\SAVING.H
C:\USERS\FS5VE\DOWNLOADS\OPENCV-WITH-EXTRA\OPENCV\BUILD\INSTALL\INCLUDE\OPENCV2\FLANN\NN_INDEX.H
C:\USERS\FS5VE\DOWNLOADS\OPENCV-WITH-EXTRA\OPENCV\BUILD\INSTALL\INCLUDE\OPENCV2\FLANN\RESULT_SET.H
C:\PROGRAM FILES (X86)\MICROSOFT VISUAL STUDIO 14.0\VC\INCLUDE\SET
C:\USERS\FS5VE\DOWNLOADS\OPENCV-WITH-EXTRA\OPENCV\BUILD\INSTALL\INCLUDE\OPENCV2\FLANN\ALL_INDICES.H
C:\USERS\FS5VE\DOWNLOADS\OPENCV-WITH-EXTRA\OPENCV\BUILD\INSTALL\INCLUDE\OPENCV2\FLANN\KDTREE_INDEX.H
C:\USERS\FS5VE\DOWNLOADS\OPENCV-WITH-EXTRA\OPENCV\BUILD\INSTALL\INCLUDE\OPENCV2\FLANN\DYNAMIC_BITSET.H
C:\USERS\FS5VE\DOWNLOADS\OPENCV-WITH-EXTRA\OPENCV\BUILD\INSTALL\INCLUDE\OPENCV2\FLANN\DIST.H
C:\USERS\FS5VE\DOWNLOADS\OPENCV-WITH-EXTRA\OPENCV\BUILD\INSTALL\INCLUDE\OPENCV2\FLANN\HEAP.H
C:\USERS\FS5VE\DOWNLOADS\OPENCV-WITH-EXTRA\OPENCV\BUILD\INSTALL\INCLUDE\OPENCV2\FLANN\ALLOCATOR.H
C:\USERS\FS5VE\DOWNLOADS\OPENCV-WITH-EXTRA\OPENCV\BUILD\INSTALL\INCLUDE\OPENCV2\FLANN\RANDOM.H
C:\USERS\FS5VE\DOWNLOADS\OPENCV-WITH-EXTRA\OPENCV\BUILD\INSTALL\INCLUDE\OPENCV2\FLANN\KDTREE_SINGLE_INDEX.H
C:\USERS\FS5VE\DOWNLOADS\OPENCV-WITH-EXTRA\OPENCV\BUILD\INSTALL\INCLUDE\OPENCV2\FLANN\KMEANS_INDEX.H
C:\USERS\FS5VE\DOWNLOADS\OPENCV-WITH-EXTRA\OPENCV\BUILD\INSTALL\INCLUDE\OPENCV2\FLANN\LOGGER.H
C:\USERS\FS5VE\DOWNLOADS\OPENCV-WITH-EXTRA\OPENCV\BUILD\INSTALL\INCLUDE\OPENCV2\FLANN\COMPOSITE_INDEX.H
C:\USERS\FS5VE\DOWNLOADS\OPENCV-WITH-EXTRA\OPENCV\BUILD\INSTALL\INCLUDE\OPENCV2\FLANN\LINEAR_INDEX.H
C:\USERS\FS5VE\DOWNLOADS\OPENCV-WITH-EXTRA\OPENCV\BUILD\INSTALL\INCLUDE\OPENCV2\FLANN\HIERARCHICAL_CLUSTERING_INDEX.H
C:\USERS\FS5VE\DOWNLOADS\OPENCV-WITH-EXTRA\OPENCV\BUILD\INSTALL\INCLUDE\OPENCV2\FLANN\LSH_INDEX.H
C:\USERS\FS5VE\DOWNLOADS\OPENCV-WITH-EXTRA\OPENCV\BUILD\INSTALL\INCLUDE\OPENCV2\FLANN\LSH_TABLE.H
C:\PROGRAM FILES (X86)\MICROSOFT VISUAL STUDIO 14.0\VC\INCLUDE\IOMANIP
C:\PROGRAM FILES (X86)\MICROSOFT VISUAL STUDIO 14.0\VC\INCLUDE\XLOCMON
C:\PROGRAM FILES (X86)\MICROSOFT VISUAL STUDIO 14.0\VC\INCLUDE\XLOCTIME
C:\PROGRAM FILES (X86)\MICROSOFT VISUAL STUDIO 14.0\VC\INCLUDE\CTIME
C:\USERS\FS5VE\DOWNLOADS\OPENCV-WITH-EXTRA\OPENCV\BUILD\INSTALL\INCLUDE\OPENCV2\FLANN\AUTOTUNED_INDEX.H
C:\USERS\FS5VE\DOWNLOADS\OPENCV-WITH-EXTRA\OPENCV\BUILD\INSTALL\INCLUDE\OPENCV2\FLANN\GROUND_TRUTH.H
C:\USERS\FS5VE\DOWNLOADS\OPENCV-WITH-EXTRA\OPENCV\BUILD\INSTALL\INCLUDE\OPENCV2\FLANN\INDEX_TESTING.H
C:\USERS\FS5VE\DOWNLOADS\OPENCV-WITH-EXTRA\OPENCV\BUILD\INSTALL\INCLUDE\OPENCV2\FLANN\TIMER.H
C:\USERS\FS5VE\DOWNLOADS\OPENCV-WITH-EXTRA\OPENCV\BUILD\INSTALL\INCLUDE\OPENCV2\FLANN\SAMPLING.H
C:\USERS\FS5VE\DOWNLOADS\OPENCV-WITH-EXTRA\OPENCV\BUILD\INSTALL\INCLUDE\OPENCV2\IMGPROC.HPP
C:\USERS\FS5VE\DOWNLOADS\OPENCV-WITH-EXTRA\OPENCV\BUILD\INSTALL\INCLUDE\OPENCV2\ML.HPP
C:\USERS\FS5VE\DOWNLOADS\OPENCV-WITH-EXTRA\OPENCV\BUILD\INSTALL\INCLUDE\OPENCV2\ML\ML.INL.HPP
C:\USERS\FS5VE\DOWNLOADS\OPENCV-WITH-EXTRA\OPENCV\BUILD\INSTALL\INCLUDE\OPENCV2\PHOTO.HPP
C:\USERS\FS5VE\DOWNLOADS\OPENCV-WITH-EXTRA\OPENCV\BUILD\INSTALL\INCLUDE\OPENCV2\SHAPE.HPP
C:\USERS\FS5VE\DOWNLOADS\OPENCV-WITH-EXTRA\OPENCV\BUILD\INSTALL\INCLUDE\OPENCV2\SHAPE\EMDL1.HPP
C:\USERS\FS5VE\DOWNLOADS\OPENCV-WITH-EXTRA\OPENCV\BUILD\INSTALL\INCLUDE\OPENCV2\SHAPE\SHAPE_TRANSFORMER.HPP
C:\USERS\FS5VE\DOWNLOADS\OPENCV-WITH-EXTRA\OPENCV\BUILD\INSTALL\INCLUDE\OPENCV2\SHAPE\HIST_COST.HPP
C:\USERS\FS5VE\DOWNLOADS\OPENCV-WITH-EXTRA\OPENCV\BUILD\INSTALL\INCLUDE\OPENCV2\SHAPE\SHAPE_DISTANCE.HPP
C:\USERS\FS5VE\DOWNLOADS\OPENCV-WITH-EXTRA\OPENCV\BUILD\INSTALL\INCLUDE\OPENCV2\STITCHING.HPP
C:\USERS\FS5VE\DOWNLOADS\OPENCV-WITH-EXTRA\OPENCV\BUILD\INSTALL\INCLUDE\OPENCV2\STITCHING\WARPERS.HPP
C:\USERS\FS5VE\DOWNLOADS\OPENCV-WITH-EXTRA\OPENCV\BUILD\INSTALL\INCLUDE\OPENCV2\STITCHING\DETAIL\WARPERS.HPP
C:\USERS\FS5VE\DOWNLOADS\OPENCV-WITH-EXTRA\OPENCV\BUILD\INSTALL\INCLUDE\OPENCV2\CORE\CUDA.HPP
C:\USERS\FS5VE\DOWNLOADS\OPENCV-WITH-EXTRA\OPENCV\BUILD\INSTALL\INCLUDE\OPENCV2\CORE\CUDA_TYPES.HPP
C:\USERS\FS5VE\DOWNLOADS\OPENCV-WITH-EXTRA\OPENCV\BUILD\INSTALL\INCLUDE\OPENCV2\CORE\CUDA.INL.HPP
C:\USERS\FS5VE\DOWNLOADS\OPENCV-WITH-EXTRA\OPENCV\BUILD\INSTALL\INCLUDE\OPENCV2\STITCHING\DETAIL\WARPERS_INL.HPP
C:\USERS\FS5VE\DOWNLOADS\OPENCV-WITH-EXTRA\OPENCV\BUILD\INSTALL\INCLUDE\OPENCV2\STITCHING\DETAIL\MATCHERS.HPP
C:\USERS\FS5VE\DOWNLOADS\OPENCV-WITH-EXTRA\OPENCV\BUILD\INSTALL\INCLUDE\OPENCV2\STITCHING\DETAIL\MOTION_ESTIMATORS.HPP
C:\USERS\FS5VE\DOWNLOADS\OPENCV-WITH-EXTRA\OPENCV\BUILD\INSTALL\INCLUDE\OPENCV2\STITCHING\DETAIL\UTIL.HPP
C:\PROGRAM FILES (X86)\MICROSOFT VISUAL STUDIO 14.0\VC\INCLUDE\LIST
C:\USERS\FS5VE\DOWNLOADS\OPENCV-WITH-EXTRA\OPENCV\BUILD\INSTALL\INCLUDE\OPENCV2\STITCHING\DETAIL\UTIL_INL.HPP
C:\PROGRAM FILES (X86)\MICROSOFT VISUAL STUDIO 14.0\VC\INCLUDE\QUEUE
C:\PROGRAM FILES (X86)\MICROSOFT VISUAL STUDIO 14.0\VC\INCLUDE\DEQUE
C:\USERS\FS5VE\DOWNLOADS\OPENCV-WITH-EXTRA\OPENCV\BUILD\INSTALL\INCLUDE\OPENCV2\STITCHING\DETAIL\CAMERA.HPP
C:\USERS\FS5VE\DOWNLOADS\OPENCV-WITH-EXTRA\OPENCV\BUILD\INSTALL\INCLUDE\OPENCV2\STITCHING\DETAIL\EXPOSURE_COMPENSATE.HPP
C:\USERS\FS5VE\DOWNLOADS\OPENCV-WITH-EXTRA\OPENCV\BUILD\INSTALL\INCLUDE\OPENCV2\STITCHING\DETAIL\SEAM_FINDERS.HPP
C:\USERS\FS5VE\DOWNLOADS\OPENCV-WITH-EXTRA\OPENCV\BUILD\INSTALL\INCLUDE\OPENCV2\STITCHING\DETAIL\BLENDERS.HPP
C:\USERS\FS5VE\DOWNLOADS\OPENCV-WITH-EXTRA\OPENCV\BUILD\INSTALL\INCLUDE\OPENCV2\SUPERRES.HPP
C:\USERS\FS5VE\DOWNLOADS\OPENCV-WITH-EXTRA\OPENCV\BUILD\INSTALL\INCLUDE\OPENCV2\SUPERRES\OPTICAL_FLOW.HPP
C:\USERS\FS5VE\DOWNLOADS\OPENCV-WITH-EXTRA\OPENCV\BUILD\INSTALL\INCLUDE\OPENCV2\VIDEO.HPP
C:\USERS\FS5VE\DOWNLOADS\OPENCV-WITH-EXTRA\OPENCV\BUILD\INSTALL\INCLUDE\OPENCV2\VIDEO\TRACKING.HPP
C:\USERS\FS5VE\DOWNLOADS\OPENCV-WITH-EXTRA\OPENCV\BUILD\INSTALL\INCLUDE\OPENCV2\VIDEO\BACKGROUND_SEGM.HPP
C:\USERS\FS5VE\DOWNLOADS\OPENCV-WITH-EXTRA\OPENCV\BUILD\INSTALL\INCLUDE\OPENCV2\VIDEOSTAB.HPP
C:\USERS\FS5VE\DOWNLOADS\OPENCV-WITH-EXTRA\OPENCV\BUILD\INSTALL\INCLUDE\OPENCV2\VIDEOSTAB\STABILIZER.HPP
C:\USERS\FS5VE\DOWNLOADS\OPENCV-WITH-EXTRA\OPENCV\BUILD\INSTALL\INCLUDE\OPENCV2\VIDEOSTAB\GLOBAL_MOTION.HPP
C:\USERS\FS5VE\DOWNLOADS\OPENCV-WITH-EXTRA\OPENCV\BUILD\INSTALL\INCLUDE\OPENCV2\VIDEOSTAB\OPTICAL_FLOW.HPP
C:\USERS\FS5VE\DOWNLOADS\OPENCV-WITH-EXTRA\OPENCV\BUILD\INSTALL\INCLUDE\OPENCV2\VIDEOSTAB\MOTION_CORE.HPP
C:\USERS\FS5VE\DOWNLOADS\OPENCV-WITH-EXTRA\OPENCV\BUILD\INSTALL\INCLUDE\OPENCV2\VIDEOSTAB\OUTLIER_REJECTION.HPP
C:\USERS\FS5VE\DOWNLOADS\OPENCV-WITH-EXTRA\OPENCV\BUILD\INSTALL\INCLUDE\OPENCV2\VIDEOSTAB\MOTION_STABILIZING.HPP
C:\USERS\FS5VE\DOWNLOADS\OPENCV-WITH-EXTRA\OPENCV\BUILD\INSTALL\INCLUDE\OPENCV2\VIDEOSTAB\FRAME_SOURCE.HPP
C:\USERS\FS5VE\DOWNLOADS\OPENCV-WITH-EXTRA\OPENCV\BUILD\INSTALL\INCLUDE\OPENCV2\VIDEOSTAB\LOG.HPP
C:\USERS\FS5VE\DOWNLOADS\OPENCV-WITH-EXTRA\OPENCV\BUILD\INSTALL\INCLUDE\OPENCV2\VIDEOSTAB\INPAINTING.HPP
C:\USERS\FS5VE\DOWNLOADS\OPENCV-WITH-EXTRA\OPENCV\BUILD\INSTALL\INCLUDE\OPENCV2\VIDEOSTAB\FAST_MARCHING.HPP
C:\USERS\FS5VE\DOWNLOADS\OPENCV-WITH-EXTRA\OPENCV\BUILD\INSTALL\INCLUDE\OPENCV2\VIDEOSTAB\FAST_MARCHING_INL.HPP
C:\USERS\FS5VE\DOWNLOADS\OPENCV-WITH-EXTRA\OPENCV\BUILD\INSTALL\INCLUDE\OPENCV2\VIDEOSTAB\DEBLURRING.HPP
C:\USERS\FS5VE\DOWNLOADS\OPENCV-WITH-EXTRA\OPENCV\BUILD\INSTALL\INCLUDE\OPENCV2\VIDEOSTAB\WOBBLE_SUPPRESSION.HPP
C:\USERS\FS5VE\DOWNLOADS\OPENCV-WITH-EXTRA\OPENCV\BUILD\INSTALL\INCLUDE\OPENCV2\VIDEOSTAB\RING_BUFFER.HPP
C:\PROGRAM FILES (X86)\MICROSOFT VISUAL STUDIO 14.0\VC\INCLUDE\DIRENT.H
C:\PROGRAM FILES (X86)\WINDOWS KITS\8.1\INCLUDE\UM\SHLOBJ.H
C:\PROGRAM FILES (X86)\WINDOWS KITS\8.1\INCLUDE\UM\COMMCTRL.H
C:\PROGRAM FILES (X86)\WINDOWS KITS\8.1\INCLUDE\UM\SHLGUID.H
C:\PROGRAM FILES (X86)\WINDOWS KITS\8.1\INCLUDE\UM\ISGUIDS.H
C:\PROGRAM FILES (X86)\WINDOWS KITS\8.1\INCLUDE\UM\EXDISP.H
C:\PROGRAM FILES (X86)\WINDOWS KITS\8.1\INCLUDE\UM\OCIDL.H
C:\PROGRAM FILES (X86)\WINDOWS KITS\8.1\INCLUDE\UM\DOCOBJ.H
C:\PROGRAM FILES (X86)\WINDOWS KITS\8.1\INCLUDE\UM\SHLDISP.H
C:\PROGRAM FILES (X86)\WINDOWS KITS\8.1\INCLUDE\UM\KNOWNFOLDERS.H
C:\PROGRAM FILES (X86)\WINDOWS KITS\8.1\INCLUDE\UM\SHTYPES.H
C:\PROGRAM FILES (X86)\WINDOWS KITS\8.1\INCLUDE\UM\SHOBJIDL.H
C:\PROGRAM FILES (X86)\WINDOWS KITS\8.1\INCLUDE\UM\COMCAT.H
C:\PROGRAM FILES (X86)\WINDOWS KITS\8.1\INCLUDE\UM\PROPSYS.H
C:\PROGRAM FILES (X86)\WINDOWS KITS\8.1\INCLUDE\UM\STRUCTUREDQUERYCONDITION.H
C:\PROGRAM FILES (X86)\WINDOWS KITS\8.1\INCLUDE\UM\PROPKEYDEF.H
C:\PROGRAM FILES (X86)\WINDOWS KITS\8.1\INCLUDE\UM\OBJECTARRAY.H
C:\PROGRAM FILES (X86)\WINDOWS KITS\8.1\INCLUDE\UM\SHERRORS.H
C:\PROGRAM FILES (X86)\INTEL\INTELSGXSDK\INCLUDE\SGX_URTS.H
C:\PROGRAM FILES (X86)\INTEL\INTELSGXSDK\INCLUDE\SGX_ATTRIBUTES.H
C:\PROGRAM FILES (X86)\INTEL\INTELSGXSDK\INCLUDE\SGX_ERROR.H
C:\PROGRAM FILES (X86)\INTEL\INTELSGXSDK\INCLUDE\SGX_EID.H
C:\PROGRAM FILES (X86)\INTEL\INTELSGXSDK\INCLUDE\SGX_DEFS.H
C:\PROGRAM FILES (X86)\INTEL\INTELSGXSDK\INCLUDE\SGX_KEY.H
C:\PROGRAM FILES (X86)\INTEL\INTELSGXSDK\INCLUDE\SGX_UAE_SERVICE.H
C:\PROGRAM FILES (X86)\INTEL\INTELSGXSDK\INCLUDE\SGX_QUOTE.H
C:\PROGRAM FILES (X86)\INTEL\INTELSGXSDK\INCLUDE\SGX_REPORT.H
C:\PROGRAM FILES (X86)\INTEL\INTELSGXSDK\INCLUDE\SGX_STATUS.H
C:\PROGRAM FILES (X86)\INTEL\INTELSGXSDK\INCLUDE\SGX_CAPABLE.H
C:\USERS\FS5VE\DOCUMENTS\VISUAL STUDIO 2015\PROJECTS\FACEDETECTIONENCLAVE\FACEDETECTIONAPP\APP.H
C:\USERS\FS5VE\DOCUMENTS\VISUAL STUDIO 2015\PROJECTS\FACEDETECTIONENCLAVE\FACEDETECTIONAPP\FACEDETECTIONENCLAVE_U.H
C:\PROGRAM FILES (X86)\INTEL\INTELSGXSDK\INCLUDE\SGX_EDGER8R.H
