^C:\USERS\FS5VE\DOCUMENTS\VISUAL STUDIO 2015\PROJECTS\FACEDETECTIONENCLAVE\FACEDETECTIONENCLAVE\SIMULATION\FACEDETECTIONENCLAVE.OBJ|C:\USERS\FS5VE\DOCUMENTS\VISUAL STUDIO 2015\PROJECTS\FACEDETECTIONENCLAVE\FACEDETECTIONENCLAVE\SIMULATION\FACEDETECTIONENCLAVE_T.OBJ|C:\USERS\FS5VE\DOCUMENTS\VISUAL STUDIO 2015\PROJECTS\FACEDETECTIONENCLAVE\FACEDETECTIONENCLAVE\SIMULATION\SEALING.OBJ
C:\WINDOWS\GLOBALIZATION\SORTING\SORTDEFAULT.NLS
C:\PROGRAM FILES (X86)\INTEL\INTELSGXSDK\BIN\WIN32\DEBUG\SGX_TRTS_SIM.LIB
C:\PROGRAM FILES (X86)\INTEL\INTELSGXSDK\BIN\WIN32\DEBUG\SGX_TSTDC.LIB
C:\PROGRAM FILES (X86)\INTEL\INTELSGXSDK\BIN\WIN32\DEBUG\SGX_TSERVICE_SIM.LIB
C:\PROGRAM FILES (X86)\INTEL\INTELSGXSDK\BIN\WIN32\DEBUG\SGX_TCRYPTO.LIB
C:\PROGRAM FILES (X86)\INTEL\INTELSGXSDK\BIN\WIN32\DEBUG\SGX_TCXX.LIB
C:\USERS\FS5VE\DOCUMENTS\VISUAL STUDIO 2015\PROJECTS\FACEDETECTIONENCLAVE\FACEDETECTIONENCLAVE\SIMULATION\FACEDETECTIONENCLAVE.OBJ
C:\USERS\FS5VE\DOCUMENTS\VISUAL STUDIO 2015\PROJECTS\FACEDETECTIONENCLAVE\FACEDETECTIONENCLAVE\SIMULATION\FACEDETECTIONENCLAVE_T.OBJ
C:\USERS\FS5VE\DOCUMENTS\VISUAL STUDIO 2015\PROJECTS\FACEDETECTIONENCLAVE\FACEDETECTIONENCLAVE\SIMULATION\SEALING.OBJ
C:\WINDOWS\SYSTEM32\TZRES.DLL
C:\PROGRAM FILES (X86)\MICROSOFT VISUAL STUDIO 14.0\VC\BIN\1033\LINKUI.DLL
